Polished Lab Notebook No. 1
…
ozs %>% 
  filter(Designated == 1) %>% 
  group_by(state) %>%
  summarise(
    Metropolitan = mean(PovertyRate[Metro == 1], na.rm=TRUE),
    Micropolitan = mean(PovertyRate[Micro == 1], na.rm=TRUE),
    Non_CBSA = mean(PovertyRate[NoCBSAType == 1], na.rm=TRUE))

## # A tibble: 56 x 4
##    state                Metropolitan Micropolitan Non_CBSA
##  * <chr>                       <dbl>        <dbl>    <dbl>
##  1 Alabama                     0.347        0.282    0.275
##  2 Alaska                      0.156      NaN        0.178
##  3 American Samoa            NaN          NaN      NaN    
##  4 Arizona                     0.319        0.311    0.239
##  5 Arkansas                    0.334        0.287    0.262
##  6 California                  0.332        0.311    0.209
##  7 Colorado                    0.245        0.169    0.201
##  8 Connecticut                 0.284        0.319  NaN    
##  9 Delaware                    0.262      NaN      NaN    
## 10 District of Columbia        0.322      NaN      NaN    
## # ... with 46 more rows
…
